-------------------------------------------------------------------------------
Test set: bomb.actor.ManagerTest
-------------------------------------------------------------------------------
Tests run: 1, Failures: 0, Errors: 0, Skipped: 0, Time elapsed: 1.18 sec
